<svg xmlns="http://www.w3.org/2000/svg" width="404" height="387" viewBox="0 0 404 387">
    <defs>
        <linearGradient id="a" x1="26.065%" x2="90.097%" y1="31.023%" y2="86.836%">
            <stop offset="0%" stop-color="#FFF" stop-opacity=".807"/>
            <stop offset="100%" stop-color="#AEB2EE"/>
        </linearGradient>
        <filter id="b" width="108.8%" height="111.5%" x="-4.4%" y="-5.7%" filterUnits="objectBoundingBox">
            <feGaussianBlur in="SourceGraphic" stdDeviation="6.147"/>
        </filter>
    </defs>
    <path fill="url(#a)" fill-opacity=".29" fill-rule="evenodd" d="M10.755 183.055l110.031-125.63L429.98 379.063z" filter="url(#b)" opacity=".786" transform="rotate(9 423.533 150.242)"/>
</svg>
